[{
  "_id": {
    "$oid": "5f263c531e633324ffa80280"
  },
  "nombre": "Daniel Alvarez",
  "__v": 0
},{
  "_id": {
    "$oid": "5f277b9696d37506f103838b"
  },
  "nombre": "Juan de acosta",
  "__v": 0
}]